{
  "type": "service_account",
  "project_id": "pygsheets-264711",
  "private_key_id": "b7619d00ce02df1ad70e222021465000e262b41d",
  "private_key": "-----BEGIN PRIVATE KEY-----\nMIIEvQIBADANBgkqhkiG9w0BAQEFAASCBKcwggSjAgEAAoIBAQCxuvLd64S5Zv+/\nUNBM+8ie29otj1oQhWDIy5FzWtFP4PzXE1f1g8QptekI1DDaXJ0m/4SgbRoWWj+E\nEi1WdE5zQnQ6wwDlDnQbSW+tZQTlJcUvo5is8dn8/hNnJA5r1tY57nEmlGT0bAez\nqWLFLNq6hotM3VCPPR8cO85jG+d0H4oWqpUft6EPiDD9ZVfxxOCC7UMiD3f+mG5P\nTsZvG78QSxYy2KjaN7hEx1qxFw/7x54GWTaeZ/nSK3NWHjqWKDP1yeqdEHldpoSh\n2aK2uAs+41JZZctBHrRcjny+QHd+zfZL9OUUTuB6uqRn2Mipvic5ZhUeBG/TLL8i\n/JMj55fvAgMBAAECggEADASPqpjj2yOPVJDy3NnDqZZFLQJ9/RL/xeQZ/DpeX+/f\nOO3aa0QTLhzaWpn6ibFsgPgTMEPgWTWWCOivvyJTMbEDKfwIofR1vmibUBa+G36P\n1FZUGxGpg1Vs23MRNJKM3tL0PL8ZCnwJk0j3YEzVp3o0jiiC64SfB2o13PbEklH4\ni4TonFSruwuJAMSaBIon5nmQ+uHvfTxQs/+udJKQHFdZK0ZxsZwlFQ+2M8j6YAcs\n9bU7Z0+3jiPZ6V5nQBCeKHTRHA5MswW1W3iDDrQ/x02g3Pqz0LQ29acUZmCleErS\nA4xTpgV8rvLPdgtmWd2igbr5vmQMszCA1i4fcV2nxQKBgQDzbyP5RFIp7tAP/Age\n5kOJnX2P9tST5PjGJcHREJUicBrukxg3ip4Ok8DU7Cc4k+AH/RAPbPLPQhPYU4v3\n4rDxkXRAkJ7QWYNO6hYf5mrNkTD+svUesc5VOuW9X4b8A0YScEPlXUbi/O9SvLxr\nGuHZgCVNmoqDGStA+eWQobdAzQKBgQC655CJlqLIZTArJ6/1l6QXK5kJIYekv1B1\nzJRMNYnHSwpCGogXa6COGGKA1I2Ct580AqGeZT1td30DwpMmKlTnOrbMOdOBQMVJ\nHhuTujAKQwEGwSASAZtRA8psY24TILPOHbNp7j/0r3mrN7Kn1SpTtd/nSzjQjP4c\noxlI15CLqwKBgQDwaCgsuY4zH0eXIZ2bdmfodgJUtL0HOa99cDhSkX/WvMO8LMRT\nxa+GUeCz5mxtcYxkF0VPFpdMm8MhdpDaQ6PfTXhzct+Ef4Iv4vnqkxGS5fpu7qko\noQxWG45bUQXryAfhmcFTuKSS8pwfJ4kkdS3qMKWmWCLGiYqv5psSFML3WQKBgH0d\njFz+UKPzUMZiv+CYjUjRb5V0M5guVY81zsQhRsT5T7mmhxmee5EDc9Un9D7f6pvn\ncwdUYEWKKk69DsIKrmFHpZyazSIGGMr0c6N1jLkh12sNFwnWt4EJF5VtDf+R8at1\nqGeuDHQgj0L1ewvsn3QAGQ19BmBdMbI74C4p12IXAoGABDIDkUdtPYJquhNkg+Gw\n6D8GjBOM9yBDknk5iIr2KO2p76cJ6CrIjsB7NZisKphWKQNNexDijSN10wNNc4uL\n2MykDzRda9tO8pHZrT9SwKbiaPV+Ql/Y/z06XooAXCImQ05bFFcXypJ0bjFL5SF/\n5Ck1NDpBsIdl65c9TGSL0j8=\n-----END PRIVATE KEY-----\n",
  "client_email": "app-engine-default@pygsheets-264711.iam.gserviceaccount.com",
  "client_id": "112677181864597282155",
  "auth_uri": "https://accounts.google.com/o/oauth2/auth",
  "token_uri": "https://oauth2.googleapis.com/token",
  "auth_provider_x509_cert_url": "https://www.googleapis.com/oauth2/v1/certs",
  "client_x509_cert_url": "https://www.googleapis.com/robot/v1/metadata/x509/app-engine-default%40pygsheets-264711.iam.gserviceaccount.com"
}
